/* XPM */
static char *titlebar_focused_middle[] = {
/* columns rows colors chars-per-pixel */
"21 25 107 2 ",
"   c #0F3337",
".  c #0F3437",
"X  c #103236",
"o  c #103237",
"O  c #103337",
"+  c #103437",
"@  c #103338",
"#  c #103438",
"$  c #113438",
"%  c #113538",
"&  c #123539",
"*  c #123639",
"=  c #12353A",
"-  c #12363A",
";  c #13373B",
":  c #14363B",
">  c #14373B",
",  c #15383C",
"<  c #15393D",
"1  c #17393D",
"2  c #173A3D",
"3  c #17393E",
"4  c #173A3E",
"5  c #193B3F",
"6  c #193C3F",
"7  c #193B40",
"8  c #193C40",
"9  c #1B3D41",
"0  c #1A3E41",
"q  c #1B3E41",
"w  c #1B3D42",
"e  c #1B3E42",
"r  c #1D3F43",
"t  c #1D3F44",
"y  c #1D4043",
"u  c #1D4044",
"i  c #1F4246",
"p  c #204146",
"a  c #204246",
"s  c #224448",
"d  c #224548",
"f  c #24464A",
"g  c #24474A",
"h  c #24474B",
"j  c #25474B",
"k  c #27494D",
"l  c #274A4D",
"z  c #274A4E",
"x  c #294B4F",
"c  c #2A4C4F",
"v  c #2A4B50",
"b  c #2A4C50",
"n  c #2C4E51",
"m  c #2C4E52",
"M  c #2E5153",
"N  c #2F5054",
"B  c #2E5154",
"V  c #2F5154",
"C  c #315356",
"Z  c #315357",
"A  c #325256",
"S  c #325356",
"D  c #315456",
"F  c #335659",
"G  c #33565A",
"H  c #355558",
"J  c #345559",
"K  c #345658",
"L  c #345659",
"P  c #34565A",
"I  c #37575B",
"U  c #37585A",
"Y  c #36585B",
"T  c #37585B",
"R  c #36595B",
"E  c #36595C",
"W  c #395A5D",
"Q  c #395B5D",
"!  c #3A5A5C",
"~  c #3A5A5D",
"^  c #395B5E",
"/  c #395B5F",
"(  c #3D5B5F",
")  c #3C5C5F",
"_  c #3C5D5F",
"`  c #3C5D60",
"'  c #3C5D61",
"]  c #3F5D61",
"[  c #3F5E61",
"{  c #3F5F61",
"}  c #3F5E62",
"|  c #3F5F62",
" . c #3F5F63",
".. c #405D61",
"X. c #435F63",
"o. c #436063",
"O. c #426163",
"+. c #436163",
"@. c #436064",
"#. c #436164",
"$. c #466165",
"%. c #476165",
"&. c #466264",
"*. c #466364",
"=. c #466265",
"-. c #466266",
";. c #466366",
/* pixels */
"*.*.&.=.$.%.%.%.%.%.%.%.-.-.-.-.-.-.-.;.;.",
"O.+.+.o.X.X.X.X.X.X.X.o.@.@.@.@.@.#.#.#.#.",
"{ { { [ [ ] ] ....] [ } } |  . . . .| | | ",
"_ _ _ ) ) ) ( ( ( ) ) ) ` ` ' ' ' ' ` ` _ ",
"Q Q Q W ! ! ! ! ! ! ~ W ^ ^ / / / / ^ ^ ~ ",
"R R Y U U U U U U U T T E E E E E E E T I ",
"F F K K K K K K K K K L L L P G G P L J H ",
"D D D C C S S S S S S C Z Z Z Z Z Z C A A ",
"M B V V V V V V V V V V V V V N N N N N N ",
"n n n m m m m m m m m m m m n n n n n m m ",
"x x c c b b b b b b b b c c c c c c c c v ",
"k k k k k z z z z z l k k k k k k k k k k ",
"f g h h j j j j j j j j j j j j j j h h h ",
"s s s s s s s s s s s s s d d d d d s s s ",
"i i i i a a a p a a a a i i i i i i i i i ",
"y y y r r r r r r r t t u u u u u u u u t ",
"0 q 9 9 9 9 9 9 9 9 9 9 w e e e e e e w 9 ",
"6 6 5 5 5 5 5 5 5 5 5 5 7 8 8 8 8 8 8 7 5 ",
"2 2 2 1 1 1 1 1 1 1 1 4 4 4 4 4 4 4 4 4 3 ",
", , , , , , , , , , , , , , < < < < , , , ",
"; ; > > : : : : : : > > > > > > > > > > > ",
"* * * & & & & & & & = = = - - - - - - - - ",
"% % % $ $ $ $ $ $ $ $ $ $ $ $ $ $ $ $ $ % ",
"# # # # # @ @ @ @ @ O O O O O O O O O O + ",
".                     o X X X X X X X X O "
};
