/* XPM */
static char * hide_inactive_xpm[] = {
"25 22 31 1",
" 	c None",
".	c #535D64",
"+	c #9DAEBC",
"@	c #6C7780",
"#	c #707C86",
"$	c #74808A",
"%	c #76828C",
"&	c #788690",
"*	c #77858F",
"=	c #798791",
"-	c #7B8992",
";	c #7C8A95",
">	c #7E8C97",
",	c #808E98",
"'	c #808F9A",
")	c #83929D",
"!	c #82919C",
"~	c #8594A0",
"{	c #84929D",
"]	c #8998A5",
"^	c #8D9DAA",
"/	c #FEFEFE",
"(	c #90A0AC",
"_	c #92A3B0",
":	c #92A2AF",
"<	c #98A9B6",
"[	c #95A6B3",
"}	c #96A7B4",
"|	c #99ABB8",
"1	c #9AABB9",
"2	c #99AAB7",
"   ......................",
"   .++++++++++++++++++++.",
"   .+@@@@@@@@@@@@@@@@@@+.",
"   .+##################+.",
"   .+$$%%$$%%%%$$%%$$$$+.",
"   .+&&&*&&&*&*&&&*====+.",
"   .+&&&*&&&*&*&&&*====+.",
"   .+--;;--;;;;--;;;;;;+.",
"   .+>>,,>>,,,,>>,,''''+.",
"   .+>>,,>>,,,,>>,,''''+.",
"   .+))!!))!!!!))!!))))+.",
"   .+~~~~~~~~~~~~~~{{{{+.",
"   .+]]]]]]]]]]]]]]]]]]+.",
"   .+]]]]]]]]]]]]]]]]]]+.",
"   .+^^^^//////////^^^^+.",
"   .+((((//////////((((+.",
"   .+____________::::::+.",
"   .+___________:::::::+.",
"   .+<[[[[[[[[[[}}}}}}}+.",
"   .+||1111111112222222+.",
"   .++++++++++++++++++++.",
"   ......................"};
